{
"0": "Audio", 
"1": "Gameplay", 
"2": "Grafis", 
"3": "Input", 
"4": "Misc", 
"5": "Volume utama:%d", 
"6": "Volume efek:%d", 
"7": "Resolusi", 
"8": "Layar penuh", 
"9": "FPS tak terbatas", 
"10": "Tampilkan FPS", 
"12": "Jalankan offset wizard", 
"13": "Offset Hit:%+d", 
"14": "Offset Grafis:%+d", 
"15": "Lebar kolom:", 
"16": "Lebar kolom tetap", 
"17": "Lebar panel tetap", 
"18": "Posisi disk DJ di sebelah kiri", 
"19": "Sembunyikan storyboard", 
"20": "Sembunyikan keyboard virtual", 
"21": "Gunakan keyboard ukuran penuh", 
"22": "Reset konfigurasi key", 
"23": "Perbarui semua chart", 
"24": "Kunjungi website", 
"25": "Bahasa", 
"26": "Volume Sistem:%d", 
"27": "Posisi kolom key:%d%%", 
"28": "Cek pembaruan", 
"29": "Gunakan kolom 3D", 
"30": "Sudut kolom:%d", 
"31": "Hidupkan keyboard android", 
"32": "Grafis penuh", 
"33": "Tampilkan offset saat bermain", 
"34": "Hidupkan key sound", 
"35": "Key sound kustom", 
"36": "Logout", 
"37": "Skin saat ini", 
"38": "Gunakan layar potret", 
"39": "Hidupkan touchscreen", 
"40": "Keluar", 
"41": "Sembunyikan batas kolom", 
"42": "Performa audio:%d", 
"43": "Bantuan", 
"44": "Eksperimental", 
"45": "Gunakan engine keysound terbaru", 
"46": "Saran & Laporan bug", 
"47": "Preview UI key", 
"48": "Jaringan", 
"49": "Server", 
"50": "Volume Musik", 
"51": "Volume Efek", 
"52": "Offset Hit", 
"53": "Offset Grafis", 
"54": "Sudut kolom", 
"55": "Direktori chart:", 
"56": "Putar playfield", 
"57": "Gunakan ASIO:", 
"58": "Tampilkan judul dengan bahasa asli", 
"59": "Matikan scrolling di key editor", 
"60": "Versi", 
"61": "Platform", 
"62": "Mode grid", 
"63": "Gunakan OpenSL", 
"64": "Atur skin", 
"65":"Inversed mouse wheel",
"66": "Enable Key Sound at end",
"67": "Select to change binding",
"68": "Setup Key for:",
"69": "Store Server Host",
"70": "Kunci FPS Permainan", 
"71": "Refresh Rate",
"72": "Efek Grafis", 
"73": "Scene Scale",
"74": "3D Motion Compensation",
"75": "3D Thickness Compensation",
"76": "Cover Position",
"77": "Skip keysound preview",
"78": "Hold Adjustment",
"79": "Stop On Hit",
"80": "Stop On Judge",
"81": "Snap to Judge",
"82": "Hit Distance",
"83": "Backup",
"84": "Note Appearance",
"85": "Show Touch Point",
"86": "ISSUES\nREPORT",
"100": "Hapus lagu", 
"101": "Buka direktori lagu", 
"102": "Hapus chart", 
"103": "Hapus skor lokal", 
"104": "Lihat di store", 
"105": "Tidak stabil", 
"106": "Pilih mod", 
"107": "Mode yang dipilih", 
"108": "Sentuh untuk mencari", 
"109": "Edit chart ini", 
"110": "Buat chart baru", 
"111": "Dapatkan lebih banyak chart", 
"112": "Buat chart baru", 
"113": "Kembali", 
"114": "Peringkat", 
"115": "Opsi", 
"116": "Lokal", 
"117": "Kemajuan", 
"118": "Selesai", 
"119": "Pause", 
"120": "Terima", 
"121": "Judge", 
"122": "Tampilkan seluruh chart", 
"123": "Kunjungi di website", 
"124": "Tidak tersedia", 
"125": "Tidak diketahui", 
"126": "Salin dan edit", 
"127": "PERINGKAT LOKAL", 
"128": "PERINGKAT ONLINE", 
"129": "SKOR TERBAIK", 
"130": "Kecepatan note", 
"131": "List Unduhan", 
"132": "Cari", 
"133": "Cara mengimpor chart", 
"134": "Mengonversikan audio ke format OGG", 
"135": "Yakin ingin menghapus chart?", 
"136": "Yakin ingin menghapus lagu?", 
"137": "Impor chart", 
"138": "Berhasil Diunduh", 
"139": "Bagikan chart ke ...", 
"140": "Buat koleksi baru", 
"141": "Yakin ingin menghapusnya?", 
"142": "Ditambahkan", 
"143": "Hapus", 
"144": "Semua chart", 
"145": "Ketik disini untuk mencari", 
"146": "List Pesan", 
"147": "Tidak Ada Pesan", 
"148":"Items included",
"149":"Charts included",
"150": "Hapus", 
"151": "Bagikan", 
"170": "Daftar Teman", 
"171": "Cari Pemain", 
"172": "Kirim Pesan", 
"173": "Undang ke Ruangan", 
"174": "Lagu untuk chart baru", 
"175": "Impor skin", 
"176": "Komentar", 
"177": "Peringkat Global", 
"178": "Lagu", 
"179": "Nonton Reply", 
"180": "Mingguan", 
"181": "Mute",
"182": "Share as Song Pack",
"183": "Share as Chart Pack",
"184": "Watch Live Stream",
"185": "Stop Watch",
"186": "Live Streaming",
"187": "Start Live",
"188": "Finish Live",
"200": "Lihat Marlo bermain dengan sempurna", 
"201": "Main dengan note acak", 
"202": "Main dengan note berlawanan", 
"203": "Abaikan perubahan scroll speed dengan BPM", 
"204": "Speed boost 20%", 
"205": "Speed boost 50%", 
"206": "Note memudar", 
"207": "Main dengan judgement original", 
"208": "Speed melambat 20%", 
"209": "Jangan biarkan Jangan biarkan Anda kalah kalah", 
"210": "Use the same judge for the match",
"211": "Play with upside down notes",
"212": "Reduce note number to fit thumb-style",
"213": "Reduce note number to make chart much easier (No online ranking)",
"250": "Tingkat kesusahan", 
"251": "PARTICULAR",
"252": "Bantuan", 
"253": "Reset", 
"254": "SCORE BOOST",
"255": "Mod ini tidak diperbolehkan", 
"300": "Key binding", 
"301": "Tekan [Esc] untuk reset", 
"302": "Coba offset: %d", 
"303": "Ingin keluar dari Malody?", 
"304": "Keluar ke posisi saat ini", 
"305": "Skor", 
"306": "Combo", 
"307": "Akurasi", 
"308": "Chart offset", 
"309": "Background dim", 
"310": "Selesai", 
"311": "Watch Player",
"312": "Start Live Streaming",
"313": "The Host is offline",
"314": "Thank you for watching",
"315": "The Host has paused",
"316": "Start watching: ",
"317": "Watch Status Display At",
"318": "Top",
"319": "Left",
"320": "Right",
"321": "Hide",
"322": "Buffering...",
"400": "Klik untuk login", 
"401": "Login", 
"402": "Profile", 
"403": "Register", 
"404": "Username", 
"405": "Password", 
"406": "Lupa?", 
"407": "Repeat Password",
"500": "Silakan tambahkan lagu ke direktori <pending>", 
"501": "Silakan tambahkan lagu ke direktori <sdcard/data/malody/pending>", 
"502": "Silakan seret lagu ke dalam iTunes", 
"503": "Silakan seret lagu (file .zip) ke dalam Malody", 
"504": "Silakan kompres skin file Anda ke dalam .msz(.zip)", 
"505": "Silakan tambahkan custom.wav ke direktori <skin>", 
"506": "Kalibrasi audio offset", 
"507": "Tekan F atau sentuh layar ketika note menyatu dengan batang merah", 
"600": "Semua", 
"601": "Judul", 
"602": "Durasi", 
"603": "BPM", 
"604": "Waktu Impor", 
"605": "Stabil", 
"606": "Beta", 
"607": "Alpha", 
"608": "Chart Offline", 
"609": "Perbarui", 
"610": "Last Played",
"650": "Ascending",
"651": "Descending",
"700": "Support", 
"701": "Support dengan 50 gold", 
"702": "Anda mendapat peringkat baru: #%d mendapat peringkat baru: #%d", 
"703": "Skor online terbaik Anda %d (+%d)", 
"704": "Donasi berhasil", 
"705": "Coba ulang", 
"706": "Mengirimkan", 
"707": "Chart tidak stabil", 
"708": "Gagal mengirim", 
"709": "Direkomendasikan", 
"710": "Tidak\nDirekomendasikan", 
"711": "Tulis\nKomentar", 
"712": "Rekomendasikan chart ini", 
"713": "Beberapa modifikasi diperlukan untuk chart ini", 
"714": "Tinggalkan komentar tentang chart ini di website", 
"715": "Review", 
"716": "Ekspor ke:", 
"717": "Peringkat global baru:", 
"718": "REPLAY", 
"719": "PERINGKAT GLOBAL", 
"720": "Donasi 50 gold", 
"721": "Donasi 500 gold", 
"722": "Batalkan rekomendasi", 
"723": "Batalkan tidak direkomendasi", 
"724": "KELUAR", 
"725": "LANJUT", 
"726": "PERINGKAT MATCH", 
"727": "Skor telah di submit", 
"800": "Silakan login untuk chat", 
"801": "Anda berada di public chat room", 
"802": "Tambahkan sebagai teman", 
"803": "Teman", 
"804": "Saling berteman", 
"805": "Pencapaian", 
"806": "Puzzle", 
"807": "Logout", 
"808": "Kanal", 
"809": "Buat room", 
"810": "DAFTAR ROOM", 
"811": "Nama room", 
"812": "Player", 
"813": "Menunggu", 
"814": "Bermain", 
"815": "Tampilkan room yang menunggu", 
"816": "Siap", 
"817": "Batalkan siap", 
"818": "Mulai", 
"819": "Hapus player", 
"820": "Transfer host", 
"821": "Mode penilaian", 
"822": "Menang dengan skor tertinggi", 
"823": "Menang dengan kombo tertinggi", 
"824": "Menang dengan akurasi tertinggi", 
"825": "Sembunyikan note", 
"826": "Mute", 
"827": "Mode tim", 
"828": "Solo", 
"829": "Dua tim", 
"830": "Mod", 
"831": "Terakhir bermain", 
"832": "%d hari yang lalu", 
"833": "%d jam yang lalu", 
"834": "%d menit yang lalu", 
"835": "Waktu ditambahkan", 
"836": "Waktu terakhir bermain", 
"837": "Tidak ada chart dipilih", 
"838": "JOIN", 
"839": "%d kali menang berturut-turut!", 
"840": "%d tahun yang lalu", 
"841": "Tampilkan semua chart", 
"842": "Tampilkan chart review", 
"843": "Private room", 
"844": "Masukkan password room", 
"845": "Telah dimainkan", 
"846":"Charts been played",
"847":"Top rankings",
"848":"Charts",
"849":"Achievements",
"850":"Puzzles",
"851": "Profil", 
"852": "Emas", 
"853":"Note",
"854": "Edit Profil", 
"855": "Pilih atau buat ruangan", 
"856": "Ruangan publik", 
"857": "gender", 
"858": "Tanggal lahir", 
"859": "Negara", 
"860":"Profile Content",
"861": "Laki-laki", 
"862": "Perempuan", 
"863": "Pilih atau buat ruangan", 
"864": "Pilih Lagu", 
"865": "Pilih Chart", 
"866": "10-Player Room",
"867": "Dan Records",
"868": "Are you sure to delete your account with play data",
"869": "Thank You for Playing!",
"900": "Main online", 
"901": "Main offline", 
"902": "Offset Calibration Wizard", 
"903": "Klik \"Start\" untuk memainkan ritme", 
"904": "Sentuh layar atau tekan F sepanjangng ritme untuk mendapatkan hasil yang stabil", 
"905": "Start", 
"906": "Reset", 
"907": "Tampilkan note", 
"908": "Main suara", 
"909": "Tekan F sepanjang ritme untuk mendapatkan hasil stabil", 
"910": "PENGATURAN", 
"911": "CHAT ROOM", 
"912": "JARINGAN", 
"913": "MOD", 
"914": "LOBBY", 
"915": "ROOM", 
"916": "PROFIL", 
"917": "HASIL", 
"918": "SKIN", 
"919": "STORE", 
"920": "TUGAS", 
"921": "CHART", 
"922": "LAGU", 
"923": "PENGUMUMAN", 
"924": "PENGAJUAN", 
"925": "KOLEKSI", 
"926": "EDITOR FOLDER",
"927":"ITEM STORE",
"928": "FRIENDS",
"1000": "Silakan login", 
"1001": "Silakan tunggu", 
"1002": "Tekan F atau sentuh layar sepanjang ketukan", 
"1003": "Anda mendapatkan skor tidak memuaskan karena hit offset tidak akurat.", 
"1004": "Apakah Anda ingin mengalibrasikan secara otomatis?", 
"1005": "Anda tidak memiliki chart ini", 
"1006": "Kalibrasi offset dinamis", 
"1007": "Atur offset audio secara otomatis saat bermain", 
"1008": "Key sound engine baru memberikan pengalaman bermain lebih baik untuk chart yang memiliki keysound", 
"1009": "Malody sudah versi terbaru", 
"1010": "Selamat datang di Malody Store. Ini adalah 80 chart stabil yang di-submit dari player seluruh dunia. Untuk mengambil lebih banyak chart atau submit hasil kerja mu", 
"1011": "Sentuh dua kali untuk main chart ini", 
"1012": "Waktu habis", 
"1013": "Sangat direkomendasikam untuk menjalankan offset wizard sebelum bermain untuk pengalaman bermain yang lebih baik.", 
"1014": "Default", 
"1015": "Tekan [Space] untuk mengakhiri", 
"1016": "Sentuh untuk mengakhiri", 
"1017": "Tamu", 
"1018": "Yaking ingin keluar dari Malody?", 
"1019": "Server error", 
"1020": "OK", 
"1021": "Batalkan", 
"1022": "Terapkan ke offset globak", 
"1023": "Terapkan ken offset chart", 
"1024": "Malody tidak dapat memuat lagu", 
"1025": "Coba muat ulang", 
"1026": "Hapus lagu", 
"1027": "Gunakan lagu ini untuk membuat chart baru?", 
"1028": "Gunakan gambar ini sebagai background?", 
"1029": "Lagu ini tidak memiliki chart", 
"1030": "Apakah Anda ingin melihat replay?", 
"1031": "Apa yang Anda ingin lakukan?", 
"1032": "Impor skin berhasil", 
"1033": "Gagal untuk impor skin", 
"1034": "Yakin untuk menghapus skin?", 
"1035": "Pilih tipe mode chart", 
"1036": "Saat kolom dihapus, semua note yang berada di situ akan dihapus. Anda yakin ingin melanjutkan?", 
"1037": "Edit chart yang bukan Malody masih berada dalam Beta test", 
"1038": "Tampilkan semua chart termasuk:\nStabil: Dipublish oleh publisher, Meneriman skor pengajuan\nBeta/Alpha: Chart WIP", 
"1039": "Gulir timeline, tekan tombol salin lagi untuk memilih tempat akhir", 
"1040": "Tekan tombol [Paste] untuk tempel note", 
"1041": "Klik untuk melanjutkan", 
"1042": "Sentuh untuk chat", 
"1043": "Operasi berhasil", 
"1044": "Impor chart berhasil", 
"1045": "Impor chart gagal", 
"1046": "Terapkan key alternatif untuk disk", 
"1047": "Malody support Keyboard OTG Android, silakan pastikan keyboard terhubung", 
"1048": "Anda disebut di kanal public", 
"1049": "Bila Anda berpikir Malody adalah game yang bagus, silakan komentar di AppStore agar player lain mengunduh game ini", 
"1051": "Ok, lakukan sekarang", 
"1052": "Preview mode ring", 
"1053": "Untuk menggunakan fitur ini, silakan pastikan perangkat Anda support output mode ASIO", 
"1054": "Silakan restart Malody untuk menerapkan perubahan", 
"1055": "Malody adalah game untuk semua pencinta game musik di dunia", 
"1056": "Harga skin %d gold", 
"1057": "Ubah offset ke:", 
"1058": "Signing in", 
"1059": "Signed in", 
"1060": "Silakan pilih level kesulitan", 
"1061": "Silakan batalkan status kesiapan terlebih dahulu", 
"1062": "Player belum siap", 
"1063": "Ditambahkan ke unduhan", 
"1064": "Terhubung ke server", 
"1065": "Anda menjadi host room", 
"1066": "OOPS! Gold Anda yang diperlukan untuk mengunduh chart di store mulai habis. Anda dapat menambah gold dengan bermain chart atau farming daily quest.", 
"1067": "Pesan singkat", 
"1068": "Mulai!", 
"1069": "Ayo mulai", 
"1070": "Tunggu sebentar!", 
"1071": "Chart terlalu sulit", 
"1072": "Chart terlalu mudah", 
"1073": "Match yang bagus", 
"1074": "Ayo main lagi", 
"1075":"We are in Early Access!\nThis means not every functionality of the game may work properly, but please make sure to report what you found annoying or simply wrong to you.\nThanks for playing Malody, and hope you will be back when the game is complete!",
"1100":"Are you sure to logout?",
"1101": "Binding telah direset", 
"1102":"Reload charts may takes a few moments to complete, are you sure to continue?",
"1103":"Achievement unlocked!",
"1104":"Puzzle unlocked!",
"1105":"Added to collection",
"1106":"Can not save profile",
"1107":"Are you sure to pay 5,000 gold for one month custom banner?",
"1108":"You don't have enough gold",
"1109":"Are you sure to pay 80,000 gold for username change? (once per 180 days)",
"1110":"Are you sure to quit the room?",
"1111":"The feature is under development :)",
"1112":"You are not in any room",
"1113":"Pay %d gold to buy one slot",
"1114":"Your payment was completed successfully",
"1115":"Your payment was canceled due to system error",
"1116": "The password reset email has sent to your mailbox",
"1117": "Are you sure to clear local scores?",
"1118": "Purchase Successful",
"1119": "With Turbo Mode, you are free to change any judge rules, but the score will not be accepted by server",
"1120": "Judge At End",
"1121": "Unique Finger",
"1122": "Early Miss",
"1123": "Disable Pause",
"1124": "Audio Speed",
"1125": "Scanning chart folder(s)",
"1126": "Chart refresh completed",
"1127": "Saved to:",
"1128": "New version available",
"1129": "Pause and Continue is disabled",
"1130": "Only Players on Malody V can enter 10-player room",
"1131": "Share success",
"1200":"Choose Action",
"1201":"Choose Sort Type",
"1202":"Are you sure to continue?",
"1203": "Choose Mode",
"1204":"Choose Import Content",
"1205": "Choose Chart Style",
"1206": "Are you sure to stop uploading?",
"1207": "Select how much gold to donate",
"1208": "Select mute day(s)",
"1209": "Shortcut",
"1210": "Upload And Share chart to other players",
"1211": "Are you sure to share the skin to workshop",
"1300": "Masterpiece",
"1301": "Sangat Postitif", 
"1302": "Positif", 
"1303": "Mostly Positive",
"1304": "Mixed",
"1305": "Mostly Negative",
"1306": "Negatif", 
"1307": "Sangat Negatif", 
"2000": "Penghapusan gagal", 
"2001": "Tidak dapat menghapus chart .sm", 
"2002": "Gagal mengirim pesan", 
"2003": "Klien terlalu usang", 
"2004": "Chart tidak stabil", 
"2005": "Login gagal: coba lagi nanti", 
"2006": "Login gagal: nama penggun atau password salah", 
"2007": "Silakan pilih posisi di atas start", 
"2008": "Silakan hapus note yang berada di posisi hold", 
"2009": "Tidak dapat menyalin file ke folder chart", 
"2010": "Letakkan hold terlebih dahulu", 
"2011": "Tidak dapat meletakkan note di sini", 
"2012": "Hanya support format gambar .jpg/.png", 
"2013": "Tidak dapat edit chart yang bukan .mc", 
"2014": "Hanya support format audio .mp3/.ogg", 
"2015": "SID salah", 
"2016": "CID salah", 
"2017": "Anda bukan pemilik chart ini", 
"2018": "Silakan cek meta chart-nya lagi", 
"2019": "Tidak dapat upload chart stable", 
"2020": "Server error", 
"2021": "Tidak dapat upload ke server", 
"2022": "Silakan batalkan upload sebelumnya", 
"2023": "Gagal untuk mendeteksi BPM", 
"2024": "File yang di-upload telah memiliki versi yang sama di Server. Editor akan meng-reupload nya setelah auto rename", 
"2025": "Silakan pilih file gambar kurang dari 2MB", 
"2026": "Disk penuh atau tidak dapat di-write", 
"2027": "Tidak dapat impor file jenis ini", 
"2028": "Tidak ada slot yang dipilih", 
"2029": "Tidak ada slot lagi!\nSetiap chart menempati satu slot sampai chart itu stabil. Stabilkan chart atau beli slot.", 
"2030": "Tidak dapat donasi pada chart yang tidak stable", 
"2031": "Gold tidak cukup untuk donasi", 
"2032": "Tidak bisa me-review chart ini", 
"2033": "Terputus dari server", 
"2034": "Tidak bisa menambah BPM di sini", 
"2035": "BPM tidak tepat", 
"2036": "Tidak bisa melakukan operasi ini", 
"2037": "Editing hanya tersedia untuk akun yang aktif", 
"2038": "Batas ukuran background video adalah 720p@25fps", 
"2039": "Tidak bisa menyalin chart non-.mc", 
"2040": "Tidak bisa memilih mode untuk skin lokal", 
"2041": "Gold Anda tidak mencukupi", 
"2042": "Tidak bisa mengunduh file", 
"2043": "Tidak bisa join room", 
"2044": "Tidak bisa membuat room", 
"2045": "Masukkan nama room", 
"2046": "Sudah ada di room", 
"2047": "File replay rusak", 
"2048": "Tidak bisa bermain dengan chart yang kosong", 
"2049": "Gagal untuk memuat chart", 
"2050": "Matikan offset dinamis untuk mengajukan skor", 
"2052": "Room ini penuh", 
"2053": "Pengajuan skor gagal sebab skor kurang baik", 
"2054": "Fitur ini masih dalam beta test", 
"2055": "Chart tidak ditemukan di store", 
"2056": "Silakan add note", 
"2057": "Anda memiliki 6 chart yang akan di-review", 
"2058": "Silakan update ke versi terbaru", 
"2059": "Password salah!", 
"2060": "Salah satu team masih kosong. Seimbangkan!", 
"2061": "[Error] Chart perlu Judul, Artist, Versi, dll.", 
"2062": "[Error] Chart memiliki note yang tumpang tindih", 
"2063": "[Better] Tambahkan background untuk chart", 
"2064": "[Error] Chart perlu setidaknya 60s lagu dan jumlah key yang tepat", 
"2100": "Silakan pilih satu slide note", 
"2101": "Silakan pilih setidaknya 3 wipe note", 
"2102": "Silakan review chart sebelum pengajuan", 
"2103":"Title or artist contains non-ascii characters",
"2104":"You have been banned!",
"2105":"Please enter basic infomation",
"2106":"Password must not be shorter than 8 characters",
"2107":"Password missmatching",
"2108": "Nama pengguna telah diregistrasi", 
"2109": "Email ini telah diregistrasi", 
"2110":"Only a-z 0-9 and []()-_@ are allowed in Username which must not be shorter than 3 characters",
"2111": "Email tidak valid", 
"2112": "Gagal mengupload", 
"2113": "Failed to convert audio file",
"2114": "Please select one chart",
"2115": "Wrong date format",
"2116": "You have changed username in 180 days",
"2117": "Failed to upload more charts due to some reasons",
"2118": "Please select Store Server from settings",
"2119": "Can not donate to your self",
"2120": "Please submit score before donation",
"2121": "You have donated 1000 gold to the chart",
"2122": "Invalid Host or Incompatible API",
"2123": "The server is about to restart, multiplayer has been disabled",
"2124": "Can not retrive file from server",
"2125": "Can not connect to Steam",
"2126": "You have no permission",
"2127": "Please select one skin",
"2128": "Can not find proper info for the skin",
"2129": "The Host has incompatible API",
"3000": "Perubahan akan disimpan sebelum dites", 
"3001": "Simpan perubahan sebelum keluar?", 
"3002": "Ini memungkinkan untuk menghapus semua note", 
"3003": "Setting & Keluar", 
"3004": "Judul", 
"3005": "Artist", 
"3006": "File audio", 
"3007": "File cover", 
"3008": "File latar belakang", 
"3009": "BPM", 
"3010": "Offset", 
"3011": "Simpan", 
"3012": "Informasi", 
"3013": "Unggah ke server", 
"3014": "Hapus semua note", 
"3015": "Deteksi otomatis", 
"3016": "Gulir timeline dan pilih tempat akhir", 
"3017": "Tes dari posisi sekarang", 
"3018": "Tes dari posisi awal", 
"3020": "Berhasil diunggah", 
"3021": "Berhasil disimpan", 
"3022": "Upload dibatalkan", 
"3023": "Yakin batalkan upload?", 
"3024": "Deteksi BPM otomatis berhasil", 
"3025": "Terapkan hasil", 
"3026": "Ketidakcocokan:", 
"3027": "Ini menyarankan Editor untuk menganalisis BPM dan offset secara otomatis. Auto-timin dapat ditemukan di Menu saat meng-edit. BPM dan offset bisa diterapkan secara manual di Menu -> Meta", 
"3028": "Bagaimana cara men-stable-kan chart", 
"3029": "Lihat laman online chart", 
"3030": "Kolom", 
"3031": "Keluar dan simpan", 
"3032": "Keluar tanpa menyimpan", 
"3033": "Beli slot", 
"3034": "Slot tersedia:", 
"3035": "Dibagi", 
"3036": "Kecepatan", 
"3037": "Toggle", 
"3038": "File list", 
"3039": "Berhasil diekspor ke folder <export>", 
"3040": "Ekspor gagal", 
"3041": "Ekspor chart", 
"3042": "Berhasil diekspor ke folder <Documents/export>", 
"3043": "Autosave setiap menit", 
"3044": "Kunci note", 
"3045": "Drop speed", 
"3046": "Tekan lagi tombol yang sama untuk menerapkan akhiran", 
"3047": "Garis akhir", 
"3048": "POW! MARLO muncul!", 
"3049": "Bar Line Dimulai Pada", 
"3050": "Tetapkan dari Beat saat ini", 
"3051": "Jumlah Hits", 
"3052": "Pengajuan", 
"3053": "Ajukan chart untuk di-review", 
"3054": "Menunggu untuk di-review", 
"3055": "Di-review", 
"3056": "Ditolak", 
"3057": "Tidak ada rekaman", 
"3058": "Tandai sebagai Di-review", 
"3059": "Tandai sebagai Ditolak", 
"3060": "Batalkan pengajuan", 
"3061": "Hubungi publisher", 
"3062": "Hubungi creator", 
"3063": "Unduh chart ini", 
"3064": "Pilih rentang yang ingin disalin", 
"3065": "Tempel", 
"3066": "Potong", 
"3067": "Flip note secara horizontal", 
"3068": "Pengaturan grid", 
"3069": "Garis grid", 
"3070": "Perataan grid", 
"3071": "Modifikasi slide", 
"3072": "Slide ke Wipe", 
"3073": "Wipe ke Slide", 
"3074": "Waktu preview", 
"3075":"Original Title",
"3076":"Original Artist",
"3077":"Single Step",
"3078":"Creator",
"3079":"Upload",
"3080":"Test Play",
"3081":"Undo",
"3082":"Redo",
"3083": "BPM Detection",
"3084": "Public Keymap",
"3085": "Current Mode Keymap",
"3086": "Add",
"3087": "Remove",
"3088": "Apply BPM detection result to main timing point?",
"3089": "Full Divide Set",
"3090": "Do AI Review",
"3091": "Grid Scale",
"3092": "More Action",
"3093": "Show Statistics",
"3094": "Note Thickness",
"3095": "Scroll Multiplier",
"3096": "Note Align to Grid",
"3097": "Peer Review",
"3098": "Related Notes",
"3099": "Related Time",
"3100": "Reply",
"3101": "Issue Label",
"3102": "Open",
"3103": "Closed",
"3104": "Reopen",
"3105": "Invalid",
"3500": "Save",
"3501": "Test",
"3502": "",
"3503": "Volume+",
"3504": "Volume-",
"3505": "Key Volume+",
"3506": "Key Volume-",
"3507": "Speed+",
"3508": "Speed-",
"3509": "Play/Pause",
"3510": "Divide+",
"3511": "Divide-",
"3512": "Copy",
"3513": "Paste",
"3514": "Note Tool",
"3515": "Hold Tool",
"3516": "Select Tool",
"3517": "Delete Tool",
"3518": "Undo",
"3519": "Redo",
"3520": "Flip Notes",
"3521": "Open Bpm List",
"3522": "Open Information",
"3523": "Open Upload",
"3524": "Wipe Tool",
"3525": "Slide Tool",
"3526": "Split",
"3527": "Merge",
"3528": "Flick Tool",
"3529": "Change Size",
"3530": "Add Don",
"3531": "Add Ka",
"3532": "Add Roll",
"3533": "Add Balloon",
"3534": "Add Space",
"3535": "Move Left",
"3536": "Move Right",
"3537": "Cut",
"3538": "Delete Selects",
"3539": "Scale+",
"3540": "Scale-",
"3541": "Add Issue",
"3542": "Mute Key Sound",
"3543": "More Action",
"3600": "Back",
"3601": "Select Up",
"3602": "Select Down",
"3603": "Confirm",
"3604": "Toggle Play",
"3605": "Play Next",
"3606": "Play Last",
"3607": "Refresh Charts",
"3608": "Screenshot",
"3609": "Quick Retry",
"4000": "Tidak diketahui", 
"4001": "Asia", 
"4002": "Afrika", 
"4003": "Amerika Utara", 
"4004": "Amerika Selatan", 
"4005": "Eropa", 
"4006":"Australia",
"4007":"Japan",
"4008":"China",
"4009":"United States",
"4010":"Taiwan (China)",
"4011":"Korea",
"4012":"Germany",
"4013":"Russian",
"4014":"Poland",
"4015":"France",
"4016":"Hong Kong (China)",
"4017":"Canada",
"4018":"Chile",
"4019":"Indonesia",
"4020":"Brazil",
"4021":"Thailand",
"4022":"Italy",
"4023":"United Kingdom",
"4024":"Argentina",
"4025":"Philippines",
"4026":"Finland",
"4027":"Netherlands",
"4028":"Malaysia",
"4029":"Spain",
"4030":"Mexico",
"4031":"Sweden",
"4032":"Singapore",
"4033":"New Zealand",
"4034":"Vietnam",
"4035":"Belgium",
"4036":"Switzerland",
"4037":"Austria",
"4038":"Bulgaria",
"4039": "Macau (China)",
"5000": "Welcome to Malody V, Would you like a tutorial?",
"5001": "Import local charts/skins/music etc.",
"5002": "Filter song list by favourite",
"5003": "Filter song list by play mode",
"5004": "Multiplayer lobby, Dan room",
"5005": "View chart/skin shared by other players",
"5006": "Daily quests",
"5007": "News from server",
"5008": "View friends or search other players",
"5009": "Chat with other online players",
"5010": "View download records, music controller",
"5011": "Add selected chart to collection",
"5012": "Change play difficulty/mods",
"5013": "View chart comments, global ranking",
"5014": "Change judge difficulty, custom judgement",
"5015": "Change note speed",
"5016": "Manage/Share chart",
"5017": "More options like offset and graphics are available when the game is paused",
"5018": "Donate gold to chart creator",
"5019": "Recommend/Not Recommend the chart to other players",
"5020": "Share chart replay",
"5021": "View technical statistics"
}
