{
  "composer.dialog.del": "Are you sure to delete the module?",
  "composer.dialog.export": "Export Skin Package(MSP)",
  "composer.dialog.filter": "Choose Usage Filter",
  "composer.dialog.holder": "Choose PlaceHolder",
  "composer.dialog.import": "Import Resource Package",
  "composer.dialog.import.ok": "Resource Package imported successfully!",
  "composer.dialog.pause": "Pause is missing in skin. Are you sure to continue?",
  "composer.dialog.res": "Choose Internal Image",
  "composer.ele.acc": "Accuracy",
  "composer.ele.bg": "Play Field Background",
  "composer.ele.catcher": "Catcher",
  "composer.ele.col": "Pure Color Image",
  "composer.ele.combo": "Combo",
  "composer.ele.cover": "Cover Mask",
  "composer.ele.cus": "Custom",
  "composer.ele.fast": "Hit Fast/Slow",
  "composer.ele.frame": "Image Frames",
  "composer.ele.hit": "Hit Effect",
  "composer.ele.hold": "Hold",
  "composer.ele.hp": "HP Gauge",
  "composer.ele.hp1": "Mask Image",
  "composer.ele.hp1.tip": "Single Image with Mask",
  "composer.ele.img": "Image",
  "composer.ele.judge": "Judgement",
  "composer.ele.line": "Note Line",
  "composer.ele.meta": "Chart Meta",
  "composer.ele.mp": "Realtime Ranking",
  "composer.ele.note": "Note",
  "composer.ele.num": "Dynamic Number",
  "composer.ele.num.tip": "Use Image as Number Characters",
  "composer.ele.pause": "Pause Button",
  "composer.ele.press": "Press Effect",
  "composer.ele.prog": "Progress",
  "composer.ele.score": "Score",
  "composer.ele.script": "Script",
  "composer.ele.script.tip": "Controll modules at playing",
  "composer.ele.skip": "Skip",
  "composer.ele.text": "Text",
  "composer.ele.text.tip": "Text, Dynamic Text",
  "composer.ele.value": "Script Value",
  "composer.ele.watch": "Watch Status",
  "composer.err.avail": "Skin Composer is not availble for the mode :(",
  "composer.err.conflict": "Conflict with existing settings",
  "composer.err.follow": "The Option is only available for module on PlayField layers",
  "composer.err.frame": "File name does not meet the format: prefix-number",
  "composer.err.frame.2": "Unable to find matched sequence images",
  "composer.err.frame.3": "Please enter valid frame count",
  "composer.err.jpg": "Please select an image file less than 1Mb",
  "composer.err.name": "Please enter name of the skin",
  "composer.err.number": "Needs 0-9 to reach minimal requirement",
  "composer.err.test.1": "Failed to prepare test resource",
  "composer.err.test.2": "No suitable chart for the skin",
  "composer.err.wronglayer": "The module cannot be placed on this layer",
  "composer.flag.eq": "Equal (=)",
  "composer.flag.large": "Larger Than (>)",
  "composer.flag.less": "Less Than (<)",
  "composer.flag.neq": "Not Equal (!=)",
  "composer.flag.occur": "Occur",
  "composer.info.cover": "Skin Cover",
  "composer.info.creator": "Creator",
  "composer.info.desc": "Description",
  "composer.info.judge": "Judge Position",
  "composer.info.lock": "Lock Settings",
  "composer.info.lock.tip": "Players can't change settings",
  "composer.info.name": "Skin Name",
  "composer.info.path": "Local Path",
  "composer.label.addi": "Additive",
  "composer.label.alpha": "Transparency",
  "composer.label.anchor": "Anchor",
  "composer.label.basic": "Basic Settings",
  "composer.label.cnt": "Content",
  "composer.label.coexist": "Enable Coexistence",
  "composer.label.coexist.tip": "Simultaneous trigger effects can coexist",
  "composer.label.color": "Color",
  "composer.label.count": "Frame Count",
  "composer.label.def": "Default Module",
  "composer.label.dynnum": "Number Settings",
  "composer.label.ele": "Element Metadata",
  "composer.label.fill": "Fill From Left",
  "composer.label.filter": "Filter",
  "composer.label.follow": "Follow Note Anchor",
  "composer.label.font": "Font",
  "composer.label.fps": "Target FPS",
  "composer.label.fx": "Flip Horizontal",
  "composer.label.fy": "Flip Vertical",
  "composer.label.h": "Height",
  "composer.label.hide": "Hide when Finished",
  "composer.label.hidedef": "Hide Default Modules",
  "composer.label.img": "Image",
  "composer.label.img.tip": "Select the first image of the sequence",
  "composer.label.imgset": "Image Settings",
  "composer.label.info": "Skin Metadata",
  "composer.label.layer": "Layer",
  "composer.label.loop": "Loop Animation",
  "composer.label.mod": "Skin Modules",
  "composer.label.notescale": "Note Scale",
  "composer.label.option": "(Optional)",
  "composer.label.order": "Order/ZIndex",
  "composer.label.pad": "Padding",
  "composer.label.pivot": "Pivot",
  "composer.label.pos": "Position",
  "composer.label.posdelta": "Position Delta",
  "composer.label.preview": "Preview",
  "composer.label.preview.e": "End",
  "composer.label.preview.s": "Start",
  "composer.label.req": "Requirements",
  "composer.label.req.1": "Choose Source",
  "composer.label.req.2": "Choose Compare Flag",
  "composer.label.req.3": "Choose Value",
  "composer.label.res": "Resource",
  "composer.label.res.add": "Overlap",
  "composer.label.res.arr.l": "Arrow Left",
  "composer.label.res.arr.r": "Arrow Right",
  "composer.label.res.arr.u": "Arrow Up",
  "composer.label.res.b": "Body",
  "composer.label.res.h": "Head",
  "composer.label.res.h.add": "Head Overlap",
  "composer.label.res.r": "Rear",
  "composer.label.res.r.add": "Rear Overlap",
  "composer.label.res.same": "Chord",
  "composer.label.rotate": "Rotation",
  "composer.label.sim": "Hide Preview Images",
  "composer.label.size": "Size",
  "composer.label.slice": "Slice(Left/Up/Right/Bottom)",
  "composer.label.temp": "Preview Value",
  "composer.label.text": "Text Settings",
  "composer.label.trigger": "Triggers",
  "composer.label.type": "Module Types",
  "composer.label.usage": "Choose Usage",
  "composer.label.value": "Value",
  "composer.label.value.bool": "Boolean",
  "composer.label.w": "Width",
  "composer.layer.an": "Above Notes",
  "composer.layer.bg": "Background",
  "composer.layer.pf": "Play Field",
  "composer.layer.tp": "Top",
  "composer.res.ava": "User Avatar",
  "composer.res.cover": "Song Cover",
  "composer.source.acc": "Accuracy",
  "composer.source.arrow": "Arrow Type",
  "composer.source.arrow.1": "Left",
  "composer.source.arrow.2": "Upward",
  "composer.source.arrow.3": "Right",
  "composer.source.art": "Song Artist",
  "composer.source.arto": "Song Artist(Original)",
  "composer.source.best": "Accumulated Best",
  "composer.source.cool": "Accumulated Cool",
  "composer.source.creator": "Chart Creator",
  "composer.source.fast": "Hit Fast",
  "composer.source.good": "Accumulated Good",
  "composer.source.h": "Screen Height",
  "composer.source.hp": "HP Value",
  "composer.source.judge": "Hit Result (Valid Judge)",
  "composer.source.judge.1": "Holding Bonus",
  "composer.source.judge.2": "Flick Bonus",
  "composer.source.judge.3": "Rain Bonus",
  "composer.source.judge.4": "Wipe Bonus",
  "composer.source.kps.cur": "Realtime KPS",
  "composer.source.kps.max": "Max KPS",
  "composer.source.kps.total": "Total Input",
  "composer.source.level": "Judge Level",
  "composer.source.maxcb": "Max Combo",
  "composer.source.miss": "Accumulated Miss",
  "composer.source.mod": "Mod Type",
  "composer.source.note": "Action on Note",
  "composer.source.note.1": "Hitted",
  "composer.source.note.2": "Holding",
  "composer.source.note.3": "Flicked",
  "composer.source.note.4": "Released",
  "composer.source.notetype": "Note Type",
  "composer.source.nps.cur": "Realtime NPS",
  "composer.source.nps.max": "Max NPS",
  "composer.source.nps.total": "Total Hitted",
  "composer.source.plat": "Platform",
  "composer.source.play": "Play By",
  "composer.source.play.1": "Player",
  "composer.source.play.2": "Auto",
  "composer.source.play.3": "Replay",
  "composer.source.player": "Player Name",
  "composer.source.press": "Press Status",
  "composer.source.press.1": "Down",
  "composer.source.press.2": "Move",
  "composer.source.press.3": "Up",
  "composer.source.prog": "Progress (%)",
  "composer.source.rat": "Screen Ratio (w/h)",
  "composer.source.score": "Score",
  "composer.source.slow": "Hit Slow",
  "composer.source.time": "Audio Time",
  "composer.source.title": "Song Title",
  "composer.source.titleo": "Song Title(Original)",
  "composer.source.total": "Total Time",
  "composer.source.uid": "Player ID",
  "composer.source.ver": "Chart Version",
  "composer.source.w": "Screen Width",
  "composer.source.x": "Note Horizontal Position",
  "config.bind.tip": "Also access Key Binding from Setting",
  "config.exp.cube6k": "Play 6K As Cube",
  "config.host": "Official",
  "config.play": "Access from Play - Pause - Setting⚙",
  "config.prelude": "Skip Prelude",
  "edit.dialog.reload": "Reload Plugins",
  "edit.err.fatal": "Can not edit this file",
  "edit.err.toolong": "Meta that is too long is not saved",
  "edit.tip.divful": "Show extra divide 1/7 ~ 1/32",
  "edit.tip.open": "Open",
  "edit.tip.play": "Play",
  "edit.tip.save": "Save",
  "import.error": "Failed",
  "import.file": "Files Received:",
  "import.finish": "Finish",
  "import.init": "Wait to Start",
  "import.noip": "No IP (Not in WIFI/LAN)",
  "import.run": "Working",
  "import.start": "Start",
  "import.title": "Share Server",
  "lobby.create.host": "Host Only",
  "lobby.create.num": "Player Capcity",
  "play.config.adv": "Advanced",
  "play.config.cube.init": "Enable Incubation Animation",
  "play.config.graphic.tip": "Keep it to 0 if you don't know the meaning",
  "play.config.light": "Hit Light Transparency",
  "play.taiko.beta": "Taiko support is in BETA",
  "result.tip.mm": "MM Point:",
  "result.tip.submit": "Score is uploading..",
  "skin.local.beta": "Skin support is in BETA",
  "skin.local.create": "Skin Composer",
  "skin.local.mismatch": "This skin was created by a higher version and may not be compatible with the current version.",
  "skin.local.warn": "The skin is created by other player, may cause low performace, crashes, or other issues. Please use it at your own risk",
  "top.tip.collect": "Collection",
  "top.tip.dl": "Download",
  "top.tip.import": "Import",
  "top.tip.logout": "Logout",
  "top.tip.mod": "Mod",
  "top.tip.mode": "Mode",
  "top.tip.search": "Search",
  "top.tip.selectok": "Done",
  "top.tip.setting": "Setting",
  "top.tip.sort": "Sort"
}