{
  "composer.dialog.del": "确定要删除此模块吗？",
  "composer.dialog.export": "导出皮肤包(MSP)",
  "composer.dialog.filter": "选择用途过滤",
  "composer.dialog.holder": "选择占位类型",
  "composer.dialog.import": "导入素材包",
  "composer.dialog.import.ok": "素材包导入成功!",
  "composer.dialog.pause": "皮肤中缺少暂停组件，是否继续?",
  "composer.dialog.res": "选择内置素材",
  "composer.ele.acc": "精确度",
  "composer.ele.bg": "游玩区域背景",
  "composer.ele.catcher": "Note托盘",
  "composer.ele.col": "纯色填充图",
  "composer.ele.combo": "连击",
  "composer.ele.cover": "上隐遮罩",
  "composer.ele.cus": "自定义",
  "composer.ele.fast": "打击早/晚",
  "composer.ele.frame": "帧动画",
  "composer.ele.hit": "打击效果",
  "composer.ele.hold": "Hold",
  "composer.ele.hp": "血量指示",
  "composer.ele.hp1": "遮罩图",
  "composer.ele.hp1.tip": "带遮罩单一图片",
  "composer.ele.img": "图片",
  "composer.ele.judge": "判定",
  "composer.ele.line": "Note连线",
  "composer.ele.meta": "谱面信息",
  "composer.ele.mp": "实时排名",
  "composer.ele.note": "Note",
  "composer.ele.num": "动态数字",
  "composer.ele.num.tip": "使用图片作为数字字符",
  "composer.ele.pause": "暂停按钮",
  "composer.ele.press": "按下效果",
  "composer.ele.prog": "进度",
  "composer.ele.score": "分数",
  "composer.ele.script": "脚本",
  "composer.ele.script.tip": "游玩中动态控制模块属性",
  "composer.ele.skip": "跳过",
  "composer.ele.text": "文字",
  "composer.ele.text.tip": "文本, 动态文本",
  "composer.ele.value": "脚本变量",
  "composer.ele.watch": "围观状态",
  "composer.err.avail": "此模式暂不支持皮肤编辑 :(",
  "composer.err.conflict": "与现有设置冲突",
  "composer.err.follow": "该选项只对位于游玩区的元件有效",
  "composer.err.frame": "文件名不满足格式：前缀-数字",
  "composer.err.frame.2": "无法找到可用的序列图片",
  "composer.err.frame.3": "请输入有效的总帧数",
  "composer.err.jpg": "需要选择小于 1Mb 的图片文件",
  "composer.err.name": "需要先输入皮肤名称",
  "composer.err.number": "需要至少 0-9 的对应图片",
  "composer.err.test.1": "无法准备测试资源",
  "composer.err.test.2": "缺少适合皮肤的谱面",
  "composer.err.wronglayer": "此模块不能放置在这一层",
  "composer.flag.eq": "等于 (=)",
  "composer.flag.large": "大于 (>)",
  "composer.flag.less": "小于 (<)",
  "composer.flag.neq": "不等于 (!=)",
  "composer.flag.occur": "发生时",
  "composer.info.cover": "皮肤封面",
  "composer.info.creator": "作者",
  "composer.info.desc": "描述",
  "composer.info.judge": "判定位置",
  "composer.info.lock": "锁定设置",
  "composer.info.lock.tip": "玩家将无法在游玩中更改设置",
  "composer.info.name": "皮肤名称",
  "composer.info.path": "本地路径",
  "composer.label.addi": "混色:Additive",
  "composer.label.alpha": "透明度",
  "composer.label.anchor": "定位点",
  "composer.label.basic": "基础属性",
  "composer.label.cnt": "内容",
  "composer.label.coexist": "允许共存",
  "composer.label.coexist.tip": "同时生效的触发效果可以共存",
  "composer.label.color": "颜色",
  "composer.label.count": "帧图片数量",
  "composer.label.def": "基础模块",
  "composer.label.dynnum": "动态数字属性",
  "composer.label.ele": "元件信息",
  "composer.label.fill": "从左侧填充",
  "composer.label.filter": "过滤",
  "composer.label.follow": "跟随Note锚点",
  "composer.label.font": "字体",
  "composer.label.fps": "目标FPS",
  "composer.label.fx": "水平翻转",
  "composer.label.fy": "垂直翻转",
  "composer.label.h": "高度",
  "composer.label.hide": "播放结束后隐藏",
  "composer.label.hidedef": "隐藏默认模块",
  "composer.label.img": "图片",
  "composer.label.img.tip": "选择序列帧第一张图",
  "composer.label.imgset": "图片属性",
  "composer.label.info": "皮肤信息",
  "composer.label.layer": "层级",
  "composer.label.loop": "循环动画",
  "composer.label.mod": "皮肤模块",
  "composer.label.notescale": "Note 缩放",
  "composer.label.option": "(可选)",
  "composer.label.order": "顺序",
  "composer.label.pad": "间距",
  "composer.label.pivot": "中心点",
  "composer.label.pos": "坐标",
  "composer.label.posdelta": "定位偏移",
  "composer.label.preview": "预览",
  "composer.label.preview.e": "结束时间",
  "composer.label.preview.s": "开始时间",
  "composer.label.req": "适用条件",
  "composer.label.req.1": "选择场景源",
  "composer.label.req.2": "选择比较方式",
  "composer.label.req.3": "选择值",
  "composer.label.res": "资源",
  "composer.label.res.add": "覆盖层",
  "composer.label.res.arr.l": "左箭头",
  "composer.label.res.arr.r": "右箭头",
  "composer.label.res.arr.u": "上箭头",
  "composer.label.res.b": "中部",
  "composer.label.res.h": "头部",
  "composer.label.res.h.add": "头部覆盖层",
  "composer.label.res.r": "尾部",
  "composer.label.res.r.add": "尾部覆盖层",
  "composer.label.res.same": "同押",
  "composer.label.rotate": "绕中心旋转角度",
  "composer.label.sim": "隐藏预览图",
  "composer.label.size": "大小",
  "composer.label.slice": "切片(左/上/右/下)",
  "composer.label.temp": "预览值",
  "composer.label.text": "文字属性",
  "composer.label.trigger": "触发器",
  "composer.label.type": "模块类型",
  "composer.label.usage": "选择用途",
  "composer.label.value": "变量值",
  "composer.label.value.bool": "开关",
  "composer.label.w": "宽度",
  "composer.layer.an": "游玩区(Note之上)",
  "composer.layer.bg": "背景层",
  "composer.layer.pf": "游玩区(Note之下)",
  "composer.layer.tp": "顶层",
  "composer.res.ava": "玩家头像",
  "composer.res.cover": "歌曲封面",
  "composer.source.acc": "准确度",
  "composer.source.arrow": "箭头类型",
  "composer.source.arrow.1": "向左",
  "composer.source.arrow.2": "向上",
  "composer.source.arrow.3": "向右",
  "composer.source.art": "歌曲艺术家",
  "composer.source.arto": "歌曲艺术家(原文)",
  "composer.source.best": "累计Best",
  "composer.source.cool": "累计Cool",
  "composer.source.creator": "谱面作者",
  "composer.source.fast": "打早",
  "composer.source.good": "累计Good",
  "composer.source.h": "屏幕高度",
  "composer.source.hp": "HP 值",
  "composer.source.judge": "击打判定",
  "composer.source.judge.1": "按住Hold奖励",
  "composer.source.judge.2": "滑动(Flick)奖励",
  "composer.source.judge.3": "Rain奖励",
  "composer.source.judge.4": "Wipe奖励",
  "composer.source.kps.cur": "实时 KPS",
  "composer.source.kps.max": "最大 KPS",
  "composer.source.kps.total": "输入总数",
  "composer.source.level": "判定难度",
  "composer.source.maxcb": "最高Combo",
  "composer.source.miss": "累计Miss",
  "composer.source.mod": "Mod 类型",
  "composer.source.note": "Note 操作",
  "composer.source.note.1": "被打击",
  "composer.source.note.2": "按住",
  "composer.source.note.3": "有效滑动",
  "composer.source.note.4": "抬手/释放",
  "composer.source.notetype": "Note 类型",
  "composer.source.nps.cur": "实时 NPS",
  "composer.source.nps.max": "最大 NPS",
  "composer.source.nps.total": "有效打击总数",
  "composer.source.plat": "运行平台",
  "composer.source.play": "游玩者",
  "composer.source.play.1": "玩家",
  "composer.source.play.2": "Auto",
  "composer.source.play.3": "回放",
  "composer.source.player": "玩家名",
  "composer.source.press": "输入状态",
  "composer.source.press.1": "按下",
  "composer.source.press.2": "移动",
  "composer.source.press.3": "抬起",
  "composer.source.prog": "进度 (%)",
  "composer.source.rat": "屏幕比例 (宽/高)",
  "composer.source.score": "总分",
  "composer.source.slow": "打晚",
  "composer.source.time": "音乐时间",
  "composer.source.title": "歌曲标题",
  "composer.source.titleo": "歌曲标题(原文)",
  "composer.source.total": "总时间",
  "composer.source.uid": "玩家 ID",
  "composer.source.ver": "谱面版本",
  "composer.source.w": "屏幕宽度",
  "composer.source.x": "Note水平位置(轨道/X)",
  "config.bind.tip": "也可以从设置中再次访问按键绑定",
  "config.exp.cube6k": "以Cube模式游玩6K谱",
  "config.host": "官方",
  "config.play": "从游玩 - 暂停菜单 - 设置中调整",
  "config.prelude": "跳过前奏",
  "edit.dialog.reload": "重载插件",
  "edit.err.fatal": "无法编辑此文件",
  "edit.err.toolong": "过长的信息无法保存",
  "edit.tip.divful": "显示额外分度1/7 至 1/32",
  "edit.tip.open": "打开",
  "edit.tip.play": "试玩",
  "edit.tip.save": "保存",
  "import.error": "启动失败",
  "import.file": "已接收文件:",
  "import.finish": "结束",
  "import.init": "等待启动",
  "import.noip": "无法获取IP (不在WIFI/局域网环境)",
  "import.run": "工作中",
  "import.start": "启动",
  "import.title": "局域网快传",
  "lobby.create.host": "仅主持比赛(不参与计分)",
  "lobby.create.num": "玩家数上限",
  "play.config.adv": "高级",
  "play.config.cube.init": "启用孵化动画",
  "play.config.graphic.tip": "如果不知道含义，请保持值为0",
  "play.config.light": "打击光亮度",
  "play.taiko.beta": "Taiko模式还在开发中",
  "result.tip.mm": "MM 值:",
  "result.tip.submit": "成绩正在上传..",
  "skin.local.beta": "皮肤支持还不完成，目前仍在开发中",
  "skin.local.create": "皮肤编辑器",
  "skin.local.mismatch": "此皮肤是由更高版本创建，可能与当前版本不兼容",
  "skin.local.warn": "皮肤由其他玩家创建，可能导致性能下降，卡顿，闪退等问题，请自行承担风险",
  "top.tip.collect": "收藏夹",
  "top.tip.dl": "下载",
  "top.tip.import": "导入",
  "top.tip.logout": "登出",
  "top.tip.mod": "Mod",
  "top.tip.mode": "模式",
  "top.tip.search": "搜索",
  "top.tip.selectok": "确定",
  "top.tip.setting": "设置",
  "top.tip.sort": "排序"
}